…
Note that with this inapplicable grouping, the value from the “C” group
is applied to both subgroups. This behavior is not possible using tidyr.

Make row groups out of columns (pivot longer):

``` r
p_df <- group_by2(iris, Species = NULL)

# groups version
pivot_grps(p_df, rows = list(value = c("Sepal.Length", "Sepal.Width")))
#> # A tibble: 300 x 3
#> # Groups:   Species, name [6]
#>    Species name         value
#>    <fct>   <chr>        <dbl>
#>  1 setosa  Sepal.Length   5.1
#>  2 setosa  Sepal.Length   4.9
#>  3 setosa  Sepal.Length   4.7
#>  4 setosa  Sepal.Length   4.6
#>  5 setosa  Sepal.Length   5  
#>  6 setosa  Sepal.Length   5.4
#>  7 setosa  Sepal.Length   4.6
#>  8 setosa  Sepal.Length   5  
#>  9 setosa  Sepal.Length   4.4
#> 10 setosa  Sepal.Length   4.9
#> # … with 290 more rows

# tidyr version
pivot_longer(iris, cols = c(Sepal.Length, Sepal.Width), values_to = "value")
#> # A tibble: 300 x 5
#>    Petal.Length Petal.Width Species name         value
#>           <dbl>       <dbl> <fct>   <chr>        <dbl>
#>  1          1.4         0.2 setosa  Sepal.Length   5.1
#>  2          1.4         0.2 setosa  Sepal.Width    3.5
#>  3          1.4         0.2 setosa  Sepal.Length   4.9
#>  4          1.4         0.2 setosa  Sepal.Width    3  
#>  5          1.3         0.2 setosa  Sepal.Length   4.7
#>  6          1.3         0.2 setosa  Sepal.Width    3.2
#>  7          1.5         0.2 setosa  Sepal.Length   4.6
#>  8          1.5         0.2 setosa  Sepal.Width    3.1
#>  9          1.4         0.2 setosa  Sepal.Length   5  
#> 10          1.4         0.2 setosa  Sepal.Width    3.6
#> # … with 290 more rows
```
…
